<?xml version="1.0" encoding="UTF-8" standalone="no"?>
<!-- Created with Inkscape (http://www.inkscape.org/) -->

<svg
   xmlns:dc="http://purl.org/dc/elements/1.1/"
   xmlns:cc="http://creativecommons.org/ns#"
   xmlns:rdf="http://www.w3.org/1999/02/22-rdf-syntax-ns#"
   xmlns:svg="http://www.w3.org/2000/svg"
   xmlns="http://www.w3.org/2000/svg"
   xmlns:sodipodi="http://sodipodi.sourceforge.net/DTD/sodipodi-0.dtd"
   xmlns:inkscape="http://www.inkscape.org/namespaces/inkscape"
   inkscape:version="0.48.4 r9939"
   version="1.1"
   id="svg3134"
   height="1052.3622047"
   width="744.09448819"
   sodipodi:docname="buffer.svg">
  <sodipodi:namedview
     id="base"
     pagecolor="#ffffff"
     bordercolor="#666666"
     borderopacity="1.0"
     inkscape:pageopacity="0.0"
     inkscape:pageshadow="2"
     inkscape:zoom="0.98994949"
     inkscape:cx="170.24022"
     inkscape:cy="788.46305"
     inkscape:document-units="px"
     inkscape:current-layer="layer1"
     showgrid="false"
     showguides="true"
     inkscape:guide-bbox="true"
     inkscape:window-width="1301"
     inkscape:window-height="744"
     inkscape:window-x="65"
     inkscape:window-y="24"
     inkscape:window-maximized="1"
     inkscape:snap-global="false">
    <sodipodi:guide
       id="guide3347"
       position="241.42646,522.24887"
       orientation="1,0" />
    <sodipodi:guide
       orientation="1,0"
       position="62.629458,531.34024"
       id="guide3528" />
    <sodipodi:guide
       orientation="1,0"
       position="82.832509,650.53824"
       id="guide3530" />
    <sodipodi:guide
       orientation="0,1"
       position="199.00005,881.86317"
       id="guide3588" />
    <sodipodi:guide
       orientation="0,1"
       position="109.09647,954.59416"
       id="guide3628" />
    <sodipodi:guide
       orientation="1,0"
       position="176.7767,598.01031"
       id="guide3654" />
  </sodipodi:namedview>
  <defs
     id="defs3136">
    <marker
       style="overflow:visible"
       id="TriangleOutS"
       refX="0"
       refY="0"
       orient="auto"
       inkscape:stockid="TriangleOutS">
      <path
         transform="scale(0.2,0.2)"
         style="fill-rule:evenodd;stroke:#000000;stroke-width:1pt"
         d="m 5.77,0 -8.65,5 0,-10 8.65,5 z"
         id="path3999"
         inkscape:connector-curvature="0" />
    </marker>
    <marker
       style="overflow:visible"
       id="TriangleOutS-6"
       refX="0"
       refY="0"
       orient="auto"
       inkscape:stockid="TriangleOutS">
      <path
         transform="scale(0.2,0.2)"
         style="fill-rule:evenodd;stroke:#000000;stroke-width:1pt"
         d="m 5.77,0 -8.65,5 0,-10 8.65,5 z"
         id="path3999-9"
         inkscape:connector-curvature="0" />
    </marker>
    <marker
       style="overflow:visible"
       id="TriangleOutS-1"
       refX="0"
       refY="0"
       orient="auto"
       inkscape:stockid="TriangleOutS">
      <path
         transform="scale(0.2,0.2)"
         style="fill-rule:evenodd;stroke:#000000;stroke-width:1pt"
         d="m 5.77,0 -8.65,5 0,-10 8.65,5 z"
         id="path3999-7"
         inkscape:connector-curvature="0" />
    </marker>
    <marker
       style="overflow:visible"
       id="TriangleOutS-2"
       refX="0"
       refY="0"
       orient="auto"
       inkscape:stockid="TriangleOutS">
      <path
         transform="scale(0.2,0.2)"
         style="fill-rule:evenodd;stroke:#000000;stroke-width:1pt"
         d="m 5.77,0 -8.65,5 0,-10 8.65,5 z"
         id="path3999-4"
         inkscape:connector-curvature="0" />
    </marker>
  </defs>
  <metadata
     id="metadata3139">
    <rdf:RDF>
      <cc:Work
         rdf:about="">
        <dc:format>image/svg+xml</dc:format>
        <dc:type
           rdf:resource="http://purl.org/dc/dcmitype/StillImage" />
        <dc:title></dc:title>
      </cc:Work>
    </rdf:RDF>
  </metadata>
  <g
     id="layer1"
     inkscape:groupmode="layer"
     inkscape:label="Layer 1">
    <g
       id="g3149"
       transform="translate(2.8571457,-190.00001)"
       inkscape:export-filename="/home/pvh/Documents/git/python_teaching/images/two_way_buffer.png"
       inkscape:export-xdpi="90"
       inkscape:export-ydpi="90">
      <rect
         style="fill:#00fdff;fill-opacity:1;fill-rule:evenodd;stroke:#000000;stroke-width:0.57464981px;stroke-linecap:butt;stroke-linejoin:miter;stroke-opacity:1"
         id="rect2985-5"
         width="203.28249"
         height="106.13963"
         x="15.501614"
         y="206.43523"
         ry="53.069817" />
      <text
         xml:space="preserve"
         style="font-size:40px;font-style:normal;font-weight:normal;line-height:125%;letter-spacing:0px;word-spacing:0px;fill:#000000;fill-opacity:1;stroke:none;font-family:Sans"
         x="45"
         y="268.7908"
         id="text3821"
         sodipodi:linespacing="125%"><tspan
           sodipodi:role="line"
           id="tspan3823"
           x="45"
           y="268.7908">python</tspan></text>
    </g>
    <g
       id="g3181"
       transform="translate(6.7244325,-87.290039)"
       inkscape:export-filename="/home/pvh/Documents/git/python_teaching/images/two_way_buffer.png"
       inkscape:export-xdpi="90"
       inkscape:export-ydpi="90">
      <rect
         style="fill:#00fdff;fill-opacity:1;fill-rule:evenodd;stroke:#000000;stroke-width:0.57464981px;stroke-linecap:butt;stroke-linejoin:miter;stroke-opacity:1"
         id="rect2985-5-6"
         width="203.28249"
         height="106.13963"
         x="15.501615"
         y="357.14951"
         ry="53.069817" />
      <text
         xml:space="preserve"
         style="font-size:40px;font-style:normal;font-weight:normal;line-height:125%;letter-spacing:0px;word-spacing:0px;fill:#000000;fill-opacity:1;stroke:none;font-family:Sans"
         x="55"
         y="425.21933"
         id="text4879"
         sodipodi:linespacing="125%"><tspan
           sodipodi:role="line"
           id="tspan4881"
           x="55"
           y="425.21933">blastn</tspan></text>
    </g>
    <rect
       rx="0"
       ry="25.714287"
       y="170.74797"
       x="28.695442"
       height="51.428574"
       width="91.834663"
       id="rect3213"
       style="fill:#ff0000;fill-opacity:1;stroke-width:12;stroke-miterlimit:4;stroke-dasharray:none"
       inkscape:export-filename="/home/pvh/Documents/git/python_teaching/images/two_way_buffer.png"
       inkscape:export-xdpi="90"
       inkscape:export-ydpi="90" />
    <path
       inkscape:connector-curvature="0"
       id="path3845"
       d="m 54.548237,279.86302 0,-57.85714"
       style="fill:none;stroke:#000000;stroke-width:12;stroke-linecap:butt;stroke-linejoin:miter;stroke-miterlimit:4;stroke-opacity:1;stroke-dasharray:none;marker-end:url(#TriangleOutS)"
       inkscape:export-filename="/home/pvh/Documents/git/python_teaching/images/two_way_buffer.png"
       inkscape:export-xdpi="90"
       inkscape:export-ydpi="90" />
    <text
       sodipodi:linespacing="125%"
       id="text3239"
       y="202.8239"
       x="56.56855"
       style="font-size:40px;font-style:normal;font-weight:normal;line-height:125%;letter-spacing:0px;word-spacing:0px;fill:#000000;fill-opacity:1;stroke:none;font-family:Sans"
       xml:space="preserve"
       inkscape:export-filename="/home/pvh/Documents/git/python_teaching/images/two_way_buffer.png"
       inkscape:export-xdpi="90"
       inkscape:export-ydpi="90"><tspan
         style="font-size:16px"
         y="202.8239"
         x="56.56855"
         id="tspan3241"
         sodipodi:role="line">buffer</tspan></text>
    <path
       inkscape:connector-curvature="0"
       id="path3845-5"
       d="m 55.55839,179.85792 0,-57.85713"
       style="fill:none;stroke:#000000;stroke-width:12;stroke-linecap:butt;stroke-linejoin:miter;stroke-miterlimit:4;stroke-opacity:1;stroke-dasharray:none;marker-end:url(#TriangleOutS)"
       inkscape:export-filename="/home/pvh/Documents/git/python_teaching/images/two_way_buffer.png"
       inkscape:export-xdpi="90"
       inkscape:export-ydpi="90" />
    <text
       sodipodi:linespacing="125%"
       id="text3267"
       y="260.40259"
       x="68.690369"
       style="font-size:40px;font-style:normal;font-weight:normal;line-height:125%;letter-spacing:0px;word-spacing:0px;fill:#000000;fill-opacity:1;stroke:none;font-family:Sans"
       xml:space="preserve"
       inkscape:export-filename="/home/pvh/Documents/git/python_teaching/images/two_way_buffer.png"
       inkscape:export-xdpi="90"
       inkscape:export-ydpi="90"><tspan
         style="font-size:16px"
         y="260.40259"
         x="68.690369"
         id="tspan3269"
         sodipodi:role="line">write</tspan><tspan
         style="font-size:16px"
         id="tspan3271"
         y="280.40259"
         x="68.690369"
         sodipodi:role="line">sys.stdout</tspan></text>
    <text
       sodipodi:linespacing="125%"
       id="text3273"
       y="112.92031"
       x="68.690392"
       style="font-size:40px;font-style:normal;font-weight:normal;line-height:125%;letter-spacing:0px;word-spacing:0px;fill:#000000;fill-opacity:1;stroke:none;font-family:Sans"
       xml:space="preserve"
       inkscape:export-filename="/home/pvh/Documents/git/python_teaching/images/two_way_buffer.png"
       inkscape:export-xdpi="90"
       inkscape:export-ydpi="90"><tspan
         style="font-size:16px"
         y="112.92031"
         x="68.690392"
         id="tspan3275"
         sodipodi:role="line">read</tspan><tspan
         style="font-size:16px"
         id="tspan3277"
         y="132.92032"
         x="68.690392"
         sodipodi:role="line">from</tspan><tspan
         style="font-size:16px"
         y="152.92032"
         x="68.690392"
         sodipodi:role="line"
         id="tspan3614">child</tspan></text>
    <g
       id="g5026"
       transform="translate(0.45475718,95.96574)"
       inkscape:export-filename="/home/pvh/Documents/git/python_teaching/images/two_way_buffer.png"
       inkscape:export-xdpi="90"
       inkscape:export-ydpi="90">
      <rect
         style="fill:#00fd37;fill-opacity:1;stroke-width:12;stroke-miterlimit:4;stroke-dasharray:none"
         id="rect4885-8-2"
         width="88.571426"
         height="22.85714"
         x="242.14285"
         y="216.64789"
         ry="11.42857"
         rx="0" />
      <text
         xml:space="preserve"
         style="font-size:40px;font-style:normal;font-weight:normal;line-height:125%;letter-spacing:0px;word-spacing:0px;fill:#000000;fill-opacity:1;stroke:none;font-family:Sans"
         x="261.42856"
         y="234.50505"
         id="text4955"
         sodipodi:linespacing="125%"><tspan
           sodipodi:role="line"
           id="tspan4957"
           x="261.42856"
           y="234.50505"
           style="font-size:20px">child</tspan></text>
    </g>
    <g
       transform="translate(-22.880298,6.5298383)"
       id="g4915"
       inkscape:export-filename="/home/pvh/Documents/git/python_teaching/images/two_way_buffer.png"
       inkscape:export-xdpi="90"
       inkscape:export-ydpi="90">
      <rect
         style="fill:#00fd37;fill-opacity:1;stroke-width:12;stroke-miterlimit:4;stroke-dasharray:none"
         id="rect4885"
         width="88.571426"
         height="22.85714"
         x="265.71429"
         y="49.505043"
         ry="11.42857"
         rx="0" />
      <text
         xml:space="preserve"
         style="font-size:40px;font-style:normal;font-weight:normal;line-height:125%;letter-spacing:0px;word-spacing:0px;fill:#000000;fill-opacity:1;stroke:none;font-family:Sans"
         x="276.42859"
         y="66.647903"
         id="text4887"
         sodipodi:linespacing="125%"><tspan
           sodipodi:role="line"
           id="tspan4889"
           x="276.42859"
           y="66.647903"
           style="font-size:20px">parent</tspan></text>
    </g>
    <rect
       rx="0"
       ry="25.714287"
       y="171.04869"
       x="137.93044"
       height="51.428574"
       width="91.834663"
       id="rect3213-7"
       style="fill:#ff0000;fill-opacity:1;stroke-width:12;stroke-miterlimit:4;stroke-dasharray:none"
       inkscape:export-filename="/home/pvh/Documents/git/python_teaching/images/two_way_buffer.png"
       inkscape:export-xdpi="90"
       inkscape:export-ydpi="90" />
    <text
       sodipodi:linespacing="125%"
       id="text3239-0"
       y="203.12462"
       x="165.80354"
       style="font-size:40px;font-style:normal;font-weight:normal;line-height:125%;letter-spacing:0px;word-spacing:0px;fill:#000000;fill-opacity:1;stroke:none;font-family:Sans"
       xml:space="preserve"
       inkscape:export-filename="/home/pvh/Documents/git/python_teaching/images/two_way_buffer.png"
       inkscape:export-xdpi="90"
       inkscape:export-ydpi="90"><tspan
         style="font-size:16px"
         y="203.12462"
         x="165.80354"
         id="tspan3241-2"
         sodipodi:role="line">buffer</tspan></text>
    <path
       inkscape:connector-curvature="0"
       id="path3845-5-8"
       d="m 182.1343,111.64978 0.0258,57.85713"
       style="fill:none;stroke:#000000;stroke-width:12;stroke-linecap:butt;stroke-linejoin:miter;stroke-miterlimit:4;stroke-opacity:1;stroke-dasharray:none;marker-end:url(#TriangleOutS)"
       inkscape:export-filename="/home/pvh/Documents/git/python_teaching/images/two_way_buffer.png"
       inkscape:export-xdpi="90"
       inkscape:export-ydpi="90" />
    <text
       xml:space="preserve"
       style="font-size:40px;font-style:normal;font-weight:normal;line-height:125%;letter-spacing:0px;word-spacing:0px;fill:#000000;fill-opacity:1;stroke:none;font-family:Sans"
       x="196.97974"
       y="113.93047"
       id="text3616"
       sodipodi:linespacing="125%"
       inkscape:export-filename="/home/pvh/Documents/git/python_teaching/images/two_way_buffer.png"
       inkscape:export-xdpi="90"
       inkscape:export-ydpi="90"><tspan
         sodipodi:role="line"
         id="tspan3618"
         x="196.97974"
         y="113.93047"
         style="font-size:16px">write</tspan><tspan
         sodipodi:role="line"
         x="196.97974"
         y="133.93047"
         id="tspan3622"
         style="font-size:16px">to</tspan><tspan
         sodipodi:role="line"
         x="196.97974"
         y="153.93047"
         id="tspan3626"
         style="font-size:16px">child</tspan></text>
    <path
       inkscape:connector-curvature="0"
       id="path3845-5-8-5"
       d="m 182.81489,212.65789 0.0258,57.85713"
       style="fill:none;stroke:#000000;stroke-width:12;stroke-linecap:butt;stroke-linejoin:miter;stroke-miterlimit:4;stroke-opacity:1;stroke-dasharray:none;marker-end:url(#TriangleOutS)"
       inkscape:export-filename="/home/pvh/Documents/git/python_teaching/images/two_way_buffer.png"
       inkscape:export-xdpi="90"
       inkscape:export-ydpi="90" />
    <text
       xml:space="preserve"
       style="font-size:40px;font-style:normal;font-weight:normal;line-height:125%;letter-spacing:0px;word-spacing:0px;fill:#000000;fill-opacity:1;stroke:none;font-family:Sans"
       x="199.00005"
       y="262.42288"
       id="text3656"
       sodipodi:linespacing="125%"
       inkscape:export-filename="/home/pvh/Documents/git/python_teaching/images/two_way_buffer.png"
       inkscape:export-xdpi="90"
       inkscape:export-ydpi="90"><tspan
         sodipodi:role="line"
         id="tspan3658"
         x="199.00005"
         y="262.42288"
         style="font-size:16px">read</tspan><tspan
         sodipodi:role="line"
         x="199.00005"
         y="282.42288"
         id="tspan3660"
         style="font-size:16px">sys.stdin</tspan></text>
  </g>
</svg>
